[{ "number": 1, "exapostilarion": "With the Disciples let us go to a mountain in Galilee to contemplate Christ by faith as He says that He has received authority over things on high and things below. Let us learn how He teaches that they are to baptize all nations in the name of the Father and of the Son and of the Holy Spirit, and that He is with his Initiates, as He promised, until the final consummation.", "theotokion": "You rejoiced with the Disciples, Virgin Mother of God, for you saw Christ risen from the tomb on the third day, as He said. He also appeared to them teaching and revealing mightier things and ordering them to baptize in the Father, Son and Spirit, that we might believe his Rising and might glorify you, O Maiden."},
{ "number": 2, "exapostilarion": "When they saw the stone rolled away the Myrrhbearers rejoiced, for they saw a Young Man seated in the tomb, and he said to them, ‘See, Christ has risen. Tell the Disciples with Peter, ‘Go to the mountain in Galilee. There He will appear to you, as He foretold to his friends’.", "theotokion": "An Angel brought his ‘Hail’ to the Virgin before your conception, O Chris. An Angel rolled the stone from your tomb. The one proclaimed and magnified the tokens of ineffable joy instead of sorrow; the other you, as giver of life in place of death, and announced the Resurrection to the Women and the Initiates."},
{ "number": 3, "exapostilarion": "Let no one doubt that Christ has risen. For He appeared to Mary; then He was seen by those going out to the country; again He appeared to the eleven Initiates as they sat at table, and, when He had sent them out to baptize, He was taken up to heaven, from which He had come down, confirming the proclamation by many signs.", "theotokion": "O Sun, who today dawned from the tomb, like a Bridegroom from his chamber, despoiled Hell and destroyed death, at the prayers of her who bore you, send out your light to us, make light shine in our hearts, make light guide us all to walk in the paths of your commandments and in the ways of peace."},
{ "number": 4, "exapostilarion": "Shining with virtues, let us contemplate the men in shining garments, who appeared in the life-bearing grave, to the Myrrhbearers as they bowed their faces to the earth. Let us be taught of the Rising of heaven’s Master, and let us run with Peter towards life in a grave, and marvelling at what is done, let us remain to see Christ.", "theotokion": "With your cry of ‘Rejoice!’, Lord, you transformed the grief of the Forefathers, bringing instead the joy of your Rising to the world. Therefore, through her who bore you, O Giver of life, Light that enlightens hearts, send forth the light of your mercies that we may cry to you, ‘Lover of humankind, God and man, glory to your Rising!’"},
{ "number": 5, "exapostilarion": "Christ, the life and the way, from among the dead, journeyed with Cleopas and Luke, to whom He was made known at Emmaus when He broke the bread. Their souls and hearts were aflame as He talked with them on the road and explained with the Scriptures what He had undergone. With them let us cry aloud, ‘He has been raised and has appeared to Peter!’", "theotokion": "I sing the praise of your mercy without measure, O my Maker, for you emptied yourself to take on and to save the nature of mortals that had grown evil. And though God, you accepted to be born in my likeness from the pure Child of God and to descend as far as Hell, as you wished me to be saved at the prayers of her who bore you, O Master full of pity."},
{ "number": 6, "exapostilarion": "Showing that you are man by essence, O Saviour, having risen from the tomb, you stood in the midst, partook of food and taught the preaching of repentance. Then at once you were raised up to the heavenly Father and you promised the Disciples to send the Paraclete. O God and man, above all godhead, glory to your Rising!", "theotokion": "The Maker of creation and God of all things took mortal flesh from your immaculate blood, All-Holy Virgin. He also renewed nature, that was all corrupted, leaving you after childbirth as you were before. Therefore with faith we all proclaim you, as we cry, ‘Hail, Sovereign Lady of the world!’"},
{ "number": 7, "exapostilarion": "When Mary said, ‘They have taken away the Lord’, Simon Peter and another Initiate of Christ, whom He loved, hurried to the grave. The two ran and found the grave clothes lying inside alone, while the napkin for the head was by itself. And so they waited quietly again, until they saw Christ.", "theotokion": "Great and wonderful are the things you have done for my sake, most merciful Christ; for you were born beyond explanation from a Virgin Maid and accepted the Cross, and having endured death you arose in glory and freed our nature from death. Glory, O Christ, to your glory! Glory to your power!"},
{ "number": 8, "exapostilarion": "Seeing two Angels in the grave, Mary was amazed and, not recognizing him, she asked Christ as the Gardener, ‘Sir, where have you laid the body of my Jesus?’ Recognizing by his call that he was the Saviour, she heard, ‘Do not touch Me. Tell my brothers that I am departing to the Father’.", "theotokion": "O Maiden, ineffably you bore one of the Trinity, who is two by nature and two by operation, yet one in person. Ever implore him then for those who worship you in faith to deliver us from every device of the foe; for now we all have recourse to you, Sovereign Lady, Mother of God."},
{ "number": 9, "exapostilarion": "The doors being shut as you entered, Master, you filled the Apostles with the All-Holy Spirit, breathing on them with peace. You told them to bind sins and to loose them, and after eight days you showed your side and hands to Thomas. With him we cry, ‘You are Lord and God’.", "theotokion": "When you saw your Son risen from the tomb on the third day, Bride of God, you put away all the tribulation you had endured as a Mother, when you saw him suffering. And filled with joy you sing his praise as you rejoice with his Disciples. And so save those who now proclaim you Mother of God."},
{ "number": 10, "exapostilarion": "Of old, the sea of Tiberias found Thomas fishing with the sons of Zebedee, Nathaniel, Peter and two others. When, at Christ’s order, they let down their net on the right hand side, they caught a multitude of fish. Peter, recognizing him, swam towards him. Appearing to them for the third time, He showed them bread, and a fish on coals.", "theotokion": "Entreat the Lord, who rose from the tomb on the third day, O Virgin, on behalf of all who sing your praise and with love call you blessed. For we all have you as a saving refuge and mediatrix with him, for we are your inheritance and your servants, Mother of God, and we all look to your assistance."}]